Programming with dplyr by using dplyr – Enchufa2
…
			Publicado el 23 julio 2017 por Iñaki Úcar		

		The title may seem tautological, but since the arrival of dplyr 0.7.x, there have been some efforts at using dplyr without actually using it that I can’t quite understand. The tidyverse has raised passions, for and against it, for some time already. There are excellent alternatives out there, and I myself use them when I find it suitable. But when I choose to use dplyr, I find it most versatile, and I see no advantage in adding yet another layer that complicates things and makes problems even harder to debug.

Take the example of seplyr. It stands for standard evaluation dplyr, and enables us to program over dplyr without having “to bring in (or study) any deep-theory or heavy-weight tools such as rlang/tidyeval”. Let’s consider the following interactive pipeline:

library(dplyr)

starwars %>%
  group_by(homeworld) %>%
  summarise(mean_height = mean(height, na.rm = TRUE),
            mean_mass = mean(mass, na.rm = TRUE),
            count = n())

## # A tibble: 49 x 4
##         homeworld mean_height mean_mass count
##             <chr>       <dbl>     <dbl> <int>
##  1       Alderaan    176.3333      64.0     3
##  2    Aleen Minor     79.0000      15.0     1
##  3         Bespin    175.0000      79.0     1
##  4     Bestine IV    180.0000     110.0     1
##  5 Cato Neimoidia    191.0000      90.0     1
##  6          Cerea    198.0000      82.0     1
##  7       Champala    196.0000       NaN     1
##  8      Chandrila    150.0000       NaN     1
##  9   Concord Dawn    183.0000      79.0     1
## 10       Corellia    175.0000      78.5     2
## # ... with 39 more rows

Let’s say we want to parametrise the grouping variable and wrap the code above into a re-usable function. Apparently, this is difficult with dplyr. But is it? Not at all: we just need to add one line and a bang-bang (!!):

starwars_mean <- function(var) {
  var <- enquo(var)
  starwars %>%
    group_by(!!var) %>%
    summarise(mean_height = mean(height, na.rm = TRUE),
            mean_mass = mean(mass, na.rm = TRUE),
            count = n())
}

starwars_mean(homeworld)

## # A tibble: 49 x 4
##         homeworld mean_height mean_mass count
##             <chr>       <dbl>     <dbl> <int>
##  1       Alderaan    176.3333      64.0     3
##  2    Aleen Minor     79.0000      15.0     1
##  3         Bespin    175.0000      79.0     1
##  4     Bestine IV    180.0000     110.0     1
##  5 Cato Neimoidia    191.0000      90.0     1
##  6          Cerea    198.0000      82.0     1
##  7       Champala    196.0000       NaN     1
##  8      Chandrila    150.0000       NaN     1
##  9   Concord Dawn    183.0000      79.0     1
## 10       Corellia    175.0000      78.5     2
## # ... with 39 more rows
…
This is the result:

library(seplyr)

starwars_mean <- function(my_var) {
  starwars %>%
    group_by_se(my_var) %>%
    summarize_se(c("mean_height" := "mean(height, na.rm = TRUE)",
                   "mean_mass" := "mean(mass, na.rm = TRUE)",
                   "count" := "n()"))
}

starwars_mean("homeworld")

## # A tibble: 49 x 4
##         homeworld mean_height mean_mass count
##             <chr>       <dbl>     <dbl> <int>
##  1       Alderaan    176.3333      64.0     3
##  2    Aleen Minor     79.0000      15.0     1
##  3         Bespin    175.0000      79.0     1
##  4     Bestine IV    180.0000     110.0     1
##  5 Cato Neimoidia    191.0000      90.0     1
##  6          Cerea    198.0000      82.0     1
##  7       Champala    196.0000       NaN     1
##  8      Chandrila    150.0000       NaN     1
##  9   Concord Dawn    183.0000      79.0     1
## 10       Corellia    175.0000      78.5     2
## # ... with 39 more rows

Basically, we had to change the entire pipeline. If re-usability was the goal, I think we lost some of it here. But, wait, we are still using non-standard evaluation in the first example. What if we really need to provide the grouping variable as a string? Easy enough, we just need to change enquo() with as.name() to convert the string to a name:

starwars_mean <- function(var) {
  var <- as.name(var)
  starwars %>%
    group_by(!!var) %>%
    summarise(mean_height = mean(height, na.rm = TRUE),
            mean_mass = mean(mass, na.rm = TRUE),
            count = n())
}

starwars_mean("homeworld")

## # A tibble: 49 x 4
##         homeworld mean_height mean_mass count
##             <chr>       <dbl>     <dbl> <int>
##  1       Alderaan    176.3333      64.0     3
##  2    Aleen Minor     79.0000      15.0     1
##  3         Bespin    175.0000      79.0     1
##  4     Bestine IV    180.0000     110.0     1
##  5 Cato Neimoidia    191.0000      90.0     1
##  6          Cerea    198.0000      82.0     1
##  7       Champala    196.0000       NaN     1
##  8      Chandrila    150.0000       NaN     1
##  9   Concord Dawn    183.0000      79.0     1
## 10       Corellia    175.0000      78.5     2
## # ... with 39 more rows

But we can do even better if we remember that dplyr provides scoped variants (see ?dplyr::scoped) for most of the verbs. In this case, group_by_at() comes in handy:

starwars_mean <- function(var) {
  starwars %>%
    group_by_at(var) %>%
    summarise(mean_height = mean(height, na.rm = TRUE),
            mean_mass = mean(mass, na.rm = TRUE),
            count = n())
}

starwars_mean("homeworld")

## # A tibble: 49 x 4
##         homeworld mean_height mean_mass count
##             <chr>       <dbl>     <dbl> <int>
##  1       Alderaan    176.3333      64.0     3
##  2    Aleen Minor     79.0000      15.0     1
##  3         Bespin    175.0000      79.0     1
##  4     Bestine IV    180.0000     110.0     1
##  5 Cato Neimoidia    191.0000      90.0     1
##  6          Cerea    198.0000      82.0     1
##  7       Champala    196.0000       NaN     1
##  8      Chandrila    150.0000       NaN     1
##  9   Concord Dawn    183.0000      79.0     1
## 10       Corellia    175.0000      78.5     2
## # ... with 39 more rows
…
